Additional Analysis – After iNaturalist
…
Multiple line charts

If we want a chart with multiple lines, we need to create a data frame with three columns: one column x axis, one column for y axis, and one column for color.

year_quality_count <- inat_data %>% 
  mutate(year = year(observed_on))  %>%
  count(year, quality_grade,  name='count') 

year_quality_count

# A tibble: 27 × 3
    year quality_grade count
   <dbl> <chr>         <int>
 1  2016 casual         1819
 2  2016 needs_id       2605
 3  2016 research       5968
 4  2017 casual         3045
 5  2017 needs_id       4855
 6  2017 research       9595
 7  2018 casual         2492
 8  2018 needs_id       5698
 9  2018 research      10974
10  2019 casual         5696
# ℹ 17 more rows
…
