Cleaning data – After iNaturalist
…
inat_data <- read_csv(observations_cleaned_path)
threatened_raw <- read_csv(here('data/raw/observations-514065_threatened.csv'))
introduced_raw <- read_csv(here('data/raw/observations-514069_introduced.csv'))
native_raw <- read_csv(here('data/raw/observations-514076_native.csv'))

Get threatened species.

threatened_data <- threatened_raw %>% 
  mutate(threatened = TRUE)

threatened_data <- threatened_data[!duplicated(threatened_data), ]

threatened_data

# A tibble: 337 × 2
   taxon_id threatened
      <dbl> <lgl>     
 1    48662 TRUE      
 2  1454382 TRUE      
 3    59575 TRUE      
 4   210624 TRUE      
 5   221090 TRUE      
 6    80308 TRUE      
 7   144205 TRUE      
 8    78804 TRUE      
 9    61164 TRUE      
10    77658 TRUE      
# ℹ 327 more rows

Get introduced species.

introduced_data <- introduced_raw %>% 
  mutate(establishment_means = 'introduced') 
  
introduced_data <- introduced_data[!duplicated(introduced_data), ]

introduced_data

# A tibble: 1,440 × 2
   taxon_id establishment_means
      <dbl> <chr>              
 1   480298 introduced         
 2    13858 introduced         
 3   187316 introduced         
 4    51271 introduced         
 5    46020 introduced         
 6   236935 introduced         
 7   552449 introduced         
 8    53168 introduced         
 9   162972 introduced         
10    53025 introduced         
# ℹ 1,430 more rows

Get native species.

native_data <- native_raw %>% 
  mutate(establishment_means = 'native') 
  
native_data <- native_data[!duplicated(native_data), ]

native_data

# A tibble: 3,058 × 2
   taxon_id establishment_means
      <dbl> <chr>              
 1    54247 native             
 2    36100 native             
 3    36204 native             
 4     6930 native             
 5     7470 native             
 6    43115 native             
 7    48662 native             
 8     7089 native             
 9    50822 native             
10    29053 native             
# ℹ 3,048 more rows

Get combine introduced and native data frames

establishment_means <- rbind(introduced_data, native_data)

establishment_means

# A tibble: 4,498 × 2
   taxon_id establishment_means
      <dbl> <chr>              
 1   480298 introduced         
 2    13858 introduced         
 3   187316 introduced         
 4    51271 introduced         
 5    46020 introduced         
 6   236935 introduced         
 7   552449 introduced         
 8    53168 introduced         
 9   162972 introduced         
10    53025 introduced         
# ℹ 4,488 more rows
…
