Creating maps – After iNaturalist
…
The following code will get the observations that are inside Exposition Park. We will save the observations to inat_expo.

inat_expo <- inat_map[lengths(st_intersects(inat_map, expo_park_boundary)) > 0, ]

inat_expo

Simple feature collection with 2964 features and 6 fields
Geometry type: POINT
Dimension:     XY
Bounding box:  xmin: -118.2911 ymin: 34.01173 xmax: -118.2829 ymax: 34.01805
Geodetic CRS:  WGS 84
# A tibble: 2,964 × 7
   user_login  common_name                     scientific_name observed_on url  
   <chr>       <chr>                           <chr>           <date>      <chr>
 1 smartrf     Bot Flies, Blow Flies, and All… Oestroidea      2016-04-14  http…
 2 smartrf     Common Pill Woodlouse           Armadillidium … 2016-04-15  http…
 3 smartrf     House Finch                     Haemorhous mex… 2016-04-15  http…
 4 smartrf     Lesser Goldfinch                Spinus psaltria 2016-04-15  http…
 5 smartrf     Large-tailed Aphideater         Eupeodes voluc… 2016-04-15  http…
 6 smartrf     Western Honey Bee               Apis mellifera  2016-04-15  http…
 7 smartrf     Threeband Slugs                 Ambigolimax     2016-04-15  http…
 8 smartrf     Asian Lady Beetle               Harmonia axyri… 2016-04-15  http…
 9 smartrf     Mourning Dove                   Zenaida macrou… 2016-04-15  http…
10 steviekgold Armyworm Moth                   Mythimna unipu… 2016-04-15  http…
# ℹ 2,954 more rows
# ℹ 2 more variables: geometry <POINT [°]>, quality_grade <chr>
…
inat_river <- inat_map_base %>% 
  select(user_login, common_name, scientific_name, taxon_kingdom_name)
  
inat_river <- inat_river[lengths(st_intersects(inat_river, buffer_river)) > 0, ]

inat_river

Simple feature collection with 14930 features and 4 fields
Geometry type: POINT
Dimension:     XY
Bounding box:  xmin: -118.6363 ymin: 33.76147 xmax: -118.1609 ymax: 34.26866
Geodetic CRS:  WGS 84
# A tibble: 14,930 × 5
   user_login common_name              scientific_name       taxon_kingdom_name
   <chr>      <chr>                    <chr>                 <chr>             
 1 bradrumble Black-necked Stilt       Himantopus mexicanus  Animalia          
 2 bradrumble Great Blue Heron         Ardea herodias        Animalia          
 3 cpekarek   Common Pill Woodlouse    Armadillidium vulgare Animalia          
 4 bradrumble Spotted Sandpiper        Actitis macularius    Animalia          
 5 bradrumble Double-crested Cormorant Nannopterum auritum   Animalia          
 6 bradrumble Cedar Waxwing            Bombycilla cedrorum   Animalia          
 7 bradrumble Double-crested Cormorant Nannopterum auritum   Animalia          
 8 bradrumble Spotted Sandpiper        Actitis macularius    Animalia          
 9 bradrumble giant reed               Arundo donax          Plantae           
10 bradrumble castor bean              Ricinus communis      Plantae           
# ℹ 14,920 more rows
# ℹ 1 more variable: geometry <POINT [°]>
…
