Introduction to Data Analysis – After iNaturalist
…
Load iNaturalist data from City Nature Challenge Los Angeles 2013-2024. There are over 191,000 observations.

inat <- read_csv(here("data/cleaned/cnc-los-angeles-observations.csv.zip"))

Select the data you want. For instance, get all the research grade observations for one user.

inat |>
  filter(user_login == 'natureinla' & 
           quality_grade == 'research') |>
  select(user_login, common_name, scientific_name, observed_on)

# A tibble: 1,556 × 4
   user_login common_name            scientific_name               observed_on
   <chr>      <chr>                  <chr>                         <date>     
 1 natureinla Red-eared Slider       Trachemys scripta elegans     2016-04-14 
 2 natureinla Monarch                Danaus plexippus              2016-04-14 
 3 natureinla San Diego Gopher Snake Pituophis catenifer annectens 2016-04-14 
 4 natureinla California Towhee      Melozone crissalis            2016-04-14 
 5 natureinla Cooper's Hawk          Astur cooperii                2016-04-14 
 6 natureinla Monarch                Danaus plexippus              2016-04-14 
 7 natureinla Allen's Hummingbird    Selasphorus sasin             2016-04-14 
 8 natureinla Northern Mockingbird   Mimus polyglottos             2016-04-15 
 9 natureinla House Sparrow          Passer domesticus             2016-04-15 
10 natureinla Indian Peafowl         Pavo cristatus                2016-04-15 
# ℹ 1,546 more rows
…
