Working with data – quarto_website
…
A CSV of iNaturalist observations for City Nature Challenge Los Angeles from 2015 to 2024 is located at “data/cleaned/cnc_la_observations.csv”. We are going to read that CSV into R.

Reading a file

In order to analyze the iNaturalist csv, we need to load readr, lubridate and dplyr packages.

library(readr) # read and write tabular data
library(dplyr) # manipulate data
library(lubridate) # manipulate dates

We will use the read_csv() function from readr package to read the iNaturalist CSV. We will pass in a relative path to the CSV file as an argument for read_csv().

read_csv('data/cleaned/cnc-los-angeles-observations.csv')

# A tibble: 169,045 × 39
        id observed_on_string     observed_on time_observed_at time_zone user_id
     <dbl> <chr>                  <date>      <chr>            <chr>       <dbl>
 1 2931940 2016-04-14 12:25:00 A… 2016-04-14  2016-04-14 19:2… Pacific …  151043
 2 2934641 Thu Apr 14 2016 12:02… 2016-04-14  2016-04-14 19:0… Pacific …   10814
 3 2934961 2016-04-14 12:15:04    2016-04-14  2016-04-14 19:1… Pacific …   80445
 4 2934980 2016-04-14 12:18:16    2016-04-14  2016-04-14 19:1… Pacific …   80445
 5 2934994 2016-04-14 12:19:09    2016-04-14  2016-04-14 19:1… Pacific …   80445
 6 2935037 Thu Apr 14 2016 12:36… 2016-04-14  2016-04-14 19:3… Pacific …  121033
 7 2935117 2016-04-15             2016-04-15  <NA>             Pacific …   76855
 8 2935139 2016-04-14             2016-04-14  <NA>             Pacific …  216108
 9 2935176 2016-04-14             2016-04-14  <NA>             Pacific …  216108
10 2935181 2016-04-14             2016-04-14  <NA>             Pacific …  216108
# ℹ 169,035 more rows
# ℹ 33 more variables: user_login <chr>, user_name <chr>, created_at <chr>,
#   updated_at <chr>, quality_grade <chr>, license <chr>, url <chr>,
#   image_url <chr>, sound_url <chr>, tag_list <chr>, description <chr>,
#   num_identification_agreements <dbl>,
#   num_identification_disagreements <dbl>, captive_cultivated <lgl>,
#   oauth_application_id <dbl>, place_guess <chr>, latitude <dbl>, …
…
Manipulating data

One of the most important skills for working with data in R is the ability to manipulate, modify, and reshape data. The dplyr package provide a series of powerful functions for many common data manipulation tasks.

select() filter() mutate() arrange() count()

select()

select() picks certain columns of a data.frame. To use the select() function, the first argument is the name of the data.frame, and the rest of the arguments are unquoted names of the columns you want.

iNaturalist CSV has 39 columns. We want four columns: user_login, common_name, scientific_name, observed_on. The columns are arranged in the order we specified inside select().

select(inat_data, user_login, common_name, scientific_name, observed_on)

# A tibble: 169,045 × 4
   user_login    common_name                         scientific_name observed_on
   <chr>         <chr>                               <chr>           <date>     
 1 msmorales     Garden Snail                        Cornu aspersum  2016-04-14 
 2 smartrf       Bot Flies, Blow Flies, and Allies   Oestroidea      2016-04-14 
 3 cdegroof      California Orange-winged Grasshopp… Arphia ramona   2016-04-14 
 4 cdegroof      Western Side-blotched Lizard        Uta stansburia… 2016-04-14 
 5 cdegroof      Western Fence Lizard                Sceloporus occ… 2016-04-14 
 6 ttempel       <NA>                                Coelocnemis     2016-04-14 
 7 bradrumble    House Sparrow                       Passer domesti… 2016-04-15 
 8 deedeeflower5 Amur Carp                           Cyprinus rubro… 2016-04-14 
 9 deedeeflower5 Red-eared Slider                    Trachemys scri… 2016-04-14 
10 deedeeflower5 Mallard                             Anas platyrhyn… 2016-04-14 
# ℹ 169,035 more rows

filter()

The filter() function is used to select rows that meet certain criteria. To get all the rows where the value of common_name is equal to Western Fence Lizard, we would run the following:

filter(inat_data, common_name == 'Western Fence Lizard')

# A tibble: 2,956 × 39
        id observed_on_string     observed_on time_observed_at time_zone user_id
     <dbl> <chr>                  <date>      <chr>            <chr>       <dbl>
 1 2934994 2016-04-14 12:19:09    2016-04-14  2016-04-14 19:1… Pacific …   80445
 2 2935263 2016-04-14             2016-04-14  <NA>             Pacific …  216108
 3 2935420 2016-04-14             2016-04-14  <NA>             Pacific …  216108
 4 2935748 2016-04-14 14:01:29    2016-04-14  2016-04-14 21:0… Pacific …   80445
 5 2935965 Thu Apr 14 2016 12:44… 2016-04-14  2016-04-14 19:4… Pacific …  171443
 6 2938607 Thu Apr 14 2016 16:33… 2016-04-14  2016-04-14 23:3… Pacific …  146517
 7 2940103 2016-04-15 9:31:39 AM… 2016-04-15  2016-04-15 16:3… Pacific …   80984
 8 2940838 Fri Apr 15 2016 10:11… 2016-04-15  2016-04-15 17:1… Pacific …  201119
 9 2940848 Fri Apr 15 2016 10:17… 2016-04-15  2016-04-15 17:1… Pacific …  201119
10 2940855 Fri Apr 15 2016 10:42… 2016-04-15  2016-04-15 17:4… Pacific …  201119
# ℹ 2,946 more rows
# ℹ 33 more variables: user_login <chr>, user_name <chr>, created_at <chr>,
#   updated_at <chr>, quality_grade <chr>, license <chr>, url <chr>,
#   image_url <chr>, sound_url <chr>, tag_list <chr>, description <chr>,
#   num_identification_agreements <dbl>,
#   num_identification_disagreements <dbl>, captive_cultivated <lgl>,
#   oauth_application_id <dbl>, place_guess <chr>, latitude <dbl>, …
The == sign means “is equal to”. There are several other operators we can use: >, >=, <, <=, and != (not equal to).

The pipe: %>%

What happens if we want to both select() and filter() our data?

We use the pipe operator (%>%) to call multiple functions. You can insert it by using the keyboard shortcut Shift+Cmd+M (Mac) or Shift+Ctrl+M (Windows).

Get user_login, common_name, scientific_name, observed_on for all observations where common_name is ‘Western Fence Lizard’. Use filter to select rows, then use select to select columns.

inat_data %>% 
  filter(common_name == 'Western Fence Lizard') %>% 
  select(user_login, common_name, scientific_name, observed_on) 

# A tibble: 2,956 × 4
   user_login    common_name          scientific_name         observed_on
   <chr>         <chr>                <chr>                   <date>     
 1 cdegroof      Western Fence Lizard Sceloporus occidentalis 2016-04-14 
 2 deedeeflower5 Western Fence Lizard Sceloporus occidentalis 2016-04-14 
 3 deedeeflower5 Western Fence Lizard Sceloporus occidentalis 2016-04-14 
 4 cdegroof      Western Fence Lizard Sceloporus occidentalis 2016-04-14 
 5 lchroman      Western Fence Lizard Sceloporus occidentalis 2016-04-14 
 6 maiz          Western Fence Lizard Sceloporus occidentalis 2016-04-14 
 7 kimssight     Western Fence Lizard Sceloporus occidentalis 2016-04-15 
 8 sarahwenner   Western Fence Lizard Sceloporus occidentalis 2016-04-15 
 9 sarahwenner   Western Fence Lizard Sceloporus occidentalis 2016-04-15 
10 sarahwenner   Western Fence Lizard Sceloporus occidentalis 2016-04-15 
# ℹ 2,946 more rows
…
table(inat_data$coordinates_obscured)

 FALSE   TRUE 
155477  13568 

155K coordinates are ok, 13K are obscured

Let’s get the observations where the coordinates are not obscured.

inat_data %>% 
  filter(coordinates_obscured == FALSE) %>% 
  select(user_login, common_name, scientific_name, observed_on) 

# A tibble: 155,477 × 4
   user_login    common_name                         scientific_name observed_on
   <chr>         <chr>                               <chr>           <date>     
 1 msmorales     Garden Snail                        Cornu aspersum  2016-04-14 
 2 smartrf       Bot Flies, Blow Flies, and Allies   Oestroidea      2016-04-14 
 3 cdegroof      California Orange-winged Grasshopp… Arphia ramona   2016-04-14 
 4 cdegroof      Western Side-blotched Lizard        Uta stansburia… 2016-04-14 
 5 cdegroof      Western Fence Lizard                Sceloporus occ… 2016-04-14 
 6 ttempel       <NA>                                Coelocnemis     2016-04-14 
 7 bradrumble    House Sparrow                       Passer domesti… 2016-04-15 
 8 deedeeflower5 Amur Carp                           Cyprinus rubro… 2016-04-14 
 9 deedeeflower5 Red-eared Slider                    Trachemys scri… 2016-04-14 
10 deedeeflower5 Mallard                             Anas platyrhyn… 2016-04-14 
# ℹ 155,467 more rows
iNaturalist gives a quality grade to each observation. When researchers use iNaturalist data, they normally use research grade observations.

To see all the unique values for a column, use unique() function from R and pass in the column name.

unique(inat_data$quality_grade)

[1] "research" "needs_id" "casual"  

Let’s get the observations that are research grade.

inat_data %>% 
  filter(quality_grade == 'research')  %>% 
  select(user_login, common_name, scientific_name, observed_on)

# A tibble: 93,948 × 4
   user_login    common_name                         scientific_name observed_on
   <chr>         <chr>                               <chr>           <date>     
 1 msmorales     Garden Snail                        Cornu aspersum  2016-04-14 
 2 cdegroof      California Orange-winged Grasshopp… Arphia ramona   2016-04-14 
 3 cdegroof      Western Side-blotched Lizard        Uta stansburia… 2016-04-14 
 4 cdegroof      Western Fence Lizard                Sceloporus occ… 2016-04-14 
 5 deedeeflower5 Red-eared Slider                    Trachemys scri… 2016-04-14 
 6 deedeeflower5 Mallard                             Anas platyrhyn… 2016-04-14 
 7 lchroman      Cactus Wren                         Campylorhynchu… 2016-04-14 
 8 deedeeflower5 Western Fence Lizard                Sceloporus occ… 2016-04-14 
 9 deedeeflower5 Fox Squirrel                        Sciurus niger   2016-04-14 
10 deedeeflower5 Monarch                             Danaus plexipp… 2016-04-14 
# ℹ 93,938 more rows
…
and operator: &

When we want go get rows that match multiple criteria, we can use the and operator &

Here we will get all observations that are research grade and common_name is Western Fence Lizard.

inat_data %>% 
  filter( common_name == 'Western Fence Lizard' 
         & quality_grade == 'research')  %>% 
  select(user_login, common_name, scientific_name, observed_on)

# A tibble: 2,936 × 4
   user_login    common_name          scientific_name         observed_on
   <chr>         <chr>                <chr>                   <date>     
 1 cdegroof      Western Fence Lizard Sceloporus occidentalis 2016-04-14 
 2 deedeeflower5 Western Fence Lizard Sceloporus occidentalis 2016-04-14 
 3 deedeeflower5 Western Fence Lizard Sceloporus occidentalis 2016-04-14 
 4 cdegroof      Western Fence Lizard Sceloporus occidentalis 2016-04-14 
 5 lchroman      Western Fence Lizard Sceloporus occidentalis 2016-04-14 
 6 maiz          Western Fence Lizard Sceloporus occidentalis 2016-04-14 
 7 kimssight     Western Fence Lizard Sceloporus occidentalis 2016-04-15 
 8 sarahwenner   Western Fence Lizard Sceloporus occidentalis 2016-04-15 
 9 sarahwenner   Western Fence Lizard Sceloporus occidentalis 2016-04-15 
10 sarahwenner   Western Fence Lizard Sceloporus occidentalis 2016-04-15 
# ℹ 2,926 more rows

Here we will get observations where user_login is ‘natureinla’ and common_name is ‘Western Fence Lizard’.

inat_data %>% 
  filter(user_login == 'natureinla' & common_name == 'Western Fence Lizard') %>% 
  select(user_login, common_name, scientific_name, observed_on) 

# A tibble: 79 × 4
   user_login common_name          scientific_name         observed_on
   <chr>      <chr>                <chr>                   <date>     
 1 natureinla Western Fence Lizard Sceloporus occidentalis 2016-04-16 
 2 natureinla Western Fence Lizard Sceloporus occidentalis 2016-04-16 
 3 natureinla Western Fence Lizard Sceloporus occidentalis 2016-04-17 
 4 natureinla Western Fence Lizard Sceloporus occidentalis 2016-04-16 
 5 natureinla Western Fence Lizard Sceloporus occidentalis 2016-04-17 
 6 natureinla Western Fence Lizard Sceloporus occidentalis 2016-04-17 
 7 natureinla Western Fence Lizard Sceloporus occidentalis 2016-04-19 
 8 natureinla Western Fence Lizard Sceloporus occidentalis 2016-04-16 
 9 natureinla Western Fence Lizard Sceloporus occidentalis 2016-04-18 
10 natureinla Western Fence Lizard Sceloporus occidentalis 2016-04-16 
# ℹ 69 more rows

or operator: |

When we want to get rows that match one or more criteria, we can use the or operator |

Here we will get observations where user_login is ‘natureinla’ or common_name is ‘Western Fence Lizard’.

inat_data %>% 
  filter(user_login == 'natureinla' | common_name == 'Western Fence Lizard') %>% 
  select(user_login, common_name, scientific_name, observed_on) 

# A tibble: 5,832 × 4
   user_login    common_name            scientific_name              observed_on
   <chr>         <chr>                  <chr>                        <date>     
 1 cdegroof      Western Fence Lizard   Sceloporus occidentalis      2016-04-14 
 2 deedeeflower5 Western Fence Lizard   Sceloporus occidentalis      2016-04-14 
 3 deedeeflower5 Western Fence Lizard   Sceloporus occidentalis      2016-04-14 
 4 natureinla    Red-eared Slider       Trachemys scripta elegans    2016-04-14 
 5 natureinla    Monarch                Danaus plexippus             2016-04-14 
 6 cdegroof      Western Fence Lizard   Sceloporus occidentalis      2016-04-14 
 7 natureinla    San Diego Gopher Snake Pituophis catenifer annecte… 2016-04-14 
 8 lchroman      Western Fence Lizard   Sceloporus occidentalis      2016-04-14 
 9 maiz          Western Fence Lizard   Sceloporus occidentalis      2016-04-14 
10 natureinla    California Towhee      Melozone crissalis           2016-04-14 
# ℹ 5,822 more rows

Here we will get observations where common_name is ‘Western Fence Lizard’ or common_name is ‘Western Honey Bee’.

inat_data %>% 
  filter(common_name == 'Western Honey Bee' | common_name == 'Western Fence Lizard')  %>% 
  select(user_login, observed_on, common_name)

# A tibble: 4,765 × 3
   user_login    observed_on common_name         
   <chr>         <date>      <chr>               
 1 cdegroof      2016-04-14  Western Fence Lizard
 2 deedeeflower5 2016-04-14  Western Fence Lizard
 3 deedeeflower5 2016-04-14  Western Fence Lizard
 4 cdegroof      2016-04-14  Western Fence Lizard
 5 lchroman      2016-04-14  Western Fence Lizard
 6 smartrf       2016-04-14  Western Honey Bee   
 7 maiz          2016-04-14  Western Fence Lizard
 8 smartrf       2016-04-15  Western Honey Bee   
 9 kimssight     2016-04-15  Western Fence Lizard
10 catherineh    2016-04-15  Western Honey Bee   
# ℹ 4,755 more rows
…
all observations for ‘Western Fence Lizard’

5,832 rows

More complex queries

Sometimes we want to use both and or to select the rows. We want observations where user is ‘cdegroof’ or ‘deedeeflower5’ and species is ‘Western Fence Lizard’. You can use multiple filter statememts.

inat_data %>% 
  filter(user_login == 'cdegroof' 
         | user_login == 'deedeeflower5') %>%
  filter(common_name == 'Western Fence Lizard')  %>% 
  select(user_login, common_name, scientific_name, observed_on)

# A tibble: 32 × 4
   user_login    common_name          scientific_name         observed_on
   <chr>         <chr>                <chr>                   <date>     
 1 cdegroof      Western Fence Lizard Sceloporus occidentalis 2016-04-14 
 2 deedeeflower5 Western Fence Lizard Sceloporus occidentalis 2016-04-14 
 3 deedeeflower5 Western Fence Lizard Sceloporus occidentalis 2016-04-14 
 4 cdegroof      Western Fence Lizard Sceloporus occidentalis 2016-04-14 
 5 cdegroof      Western Fence Lizard Sceloporus occidentalis 2016-04-16 
 6 cdegroof      Western Fence Lizard Sceloporus occidentalis 2016-04-16 
 7 cdegroof      Western Fence Lizard Sceloporus occidentalis 2016-04-16 
 8 cdegroof      Western Fence Lizard Sceloporus occidentalis 2016-04-17 
 9 cdegroof      Western Fence Lizard Sceloporus occidentalis 2016-04-17 
10 cdegroof      Western Fence Lizard Sceloporus occidentalis 2016-04-17 
# ℹ 22 more rows
…
This will get all observations for 2020.

inat_data %>% 
  mutate(year = year(observed_on)) %>%
  filter(year == 2020)

# A tibble: 19,531 × 40
         id observed_on_string    observed_on time_observed_at time_zone user_id
      <dbl> <chr>                 <date>      <chr>            <chr>       <dbl>
 1 43036512 Fri Apr 24 2020 00:0… 2020-04-24  2020-04-24 07:0… Pacific …  907908
 2 43036525 Fri Apr 24 2020 00:0… 2020-04-24  2020-04-24 07:0… Pacific … 2556338
 3 43036534 Fri Apr 24 2020 00:0… 2020-04-24  2020-04-24 07:0… Pacific …  146517
 4 43036755 Fri Apr 24 2020 00:0… 2020-04-24  2020-04-24 07:0… Pacific … 2556338
 5 43036856 Fri Apr 24 2020 00:0… 2020-04-24  2020-04-24 07:0… Pacific … 2556338
 6 43036989 Fri Apr 24 2020 00:0… 2020-04-24  2020-04-24 07:0… Pacific …   74669
 7 43037041 Fri Apr 24 2020 00:0… 2020-04-24  2020-04-24 07:0… Pacific …   74669
 8 43037308 Fri Apr 24 2020 00:1… 2020-04-24  2020-04-24 07:1… Pacific … 2556338
 9 43037581 Fri Apr 24 2020 00:1… 2020-04-24  2020-04-24 07:1… Pacific … 2556338
10 43037631 Fri Apr 24 2020 00:1… 2020-04-24  2020-04-24 07:1… Pacific …  403949
# ℹ 19,521 more rows
# ℹ 34 more variables: user_login <chr>, user_name <chr>, created_at <chr>,
#   updated_at <chr>, quality_grade <chr>, license <chr>, url <chr>,
#   image_url <chr>, sound_url <chr>, tag_list <chr>, description <chr>,
#   num_identification_agreements <dbl>,
#   num_identification_disagreements <dbl>, captive_cultivated <lgl>,
#   oauth_application_id <dbl>, place_guess <chr>, latitude <dbl>, …
…
Let’s count the number of observations for each species. We will pass in both ‘common_name’ and ‘scientific_name’ because some species don’t have a common_name.

inat_data %>% 
  count(common_name, scientific_name, name='obs_count')   

# A tibble: 9,291 × 3
   common_name                             scientific_name        obs_count
   <chr>                                   <chr>                      <int>
 1 Abalone                                 Haliotis                       7
 2 Abbott's bushmallow                     Malacothamnus abbottii         1
 3 Abert's Thread-waisted Wasp             Ammophila aberti               3
 4 Abyssinian banana                       Ensete ventricosum             1
 5 Acacia Psyllid                          Acizzia uncatoides             2
 6 Acacias, Mimosas, mesquites, and allies Mimosoideae                    8
 7 Acalyptrate Flies                       Acalyptratae                  62
 8 Acanthus                                Acanthus                      18
 9 Accipiters                              Accipiter                      5
10 Achilid Planthoppers                    Achilidae                      1
# ℹ 9,281 more rows
…
